{
    "slug": "debawueldb",
    "relevant-countries": [
        "de"
    ],
    "name": "Der Landesbeauftragte für den Datenschutz Baden-Württemberg",
    "address": "Postfach 10 29 32\n70025 Stuttgart\nDeutschland",
    "phone": "+49 711 6155 410",
    "fax": "+49 711 6155 4115",
    "email": "poststelle@lfdi.bwl.de",
    "pgp-fingerprint": "E4FA 428C B315 2248 83BB  F6FB 0FC3 48A6 4A32 5962",
    "web": "https://www.baden-wuerttemberg.datenschutz.de/",
    "online-complaint-form": "https://www.baden-wuerttemberg.datenschutz.de/online-beschwerde/",
    "sources": [
        "https://www.baden-wuerttemberg.datenschutz.de/pgp-schlussel/",
        "https://www.baden-wuerttemberg.datenschutz.de/kontakt/",
        "https://www.datenschutz-wiki.de/Aufsichtsbeh%C3%B6rden_und_Landesdatenschutzbeauftragte"
    ],
    "complaint-language": "de",
    "suggested-transport-medium": "email"
}
