{
	"$schema": "http://json-schema.org/draft-07/schema#",
	"title": "tracker database",
	"description": "",
	"type": "object",
	"properties": {
		"slug": {
			"type": "string",
			"title": "Slug",
			"pattern": "^[a-z0-9-]+$",
			"description": "A unique identifier for the tracker record. Also defines the filename."
		},
		"priority": {
			"type": "number",
			"default": 0,
			"description": "The priority in the tracker list. > 50 -> in the most important tracker list",
			"title": "Priotity"
		},
		"name": {
			"type": "string",
			"description": "The name of the tracker.",
			"title": "Name"
		},
		"search-by": {
			"type": "array",
			"description": "Filter for network analysis.",
			"title": "Filter",
			"items": {
                "type": "string",
				"format": "text"
			}
		},
		"customInput": {
			"type": "boolean",
			"description": "-- webpages only",
			"title": ""
		},
		"sending-id-adresses": {
			"type": "array",
			"title": "Addresses of the app that verifiably sends an ID",
			"description": "",
			"items": {
				"type": "string",
				"format": "text"
			}
		},
		"connections-to": {
			"type": "array",
			"title": "Connections to the associated servers",
			"description": "Enter here if you have detected connections to these servers",
			"items": {
                "type": "string",
				"format": "text"
			}
		},
		"tracking-urls": {
            "type": "array",
			"title": "Tracking urls",
			"description": "",
			"items": {
                "type": "string",
				"format": "text"
			}
        },
        "note": {
			"type": "object",
			"description": "Displays an additional notice when the tracker is selected.",
            "title": "Additional notice",
            "properties": {
                "image": {
                    "type": "string",
                    "description": "Relative path to the hint image",
                    "title": "Relative path"
                },
                "title": {
                    "type": "string",
                    "description": "Heading to the additional notice",
                    "title": "heading"
                },
                "text": {
                    "type": "string",
                    "description": "The information about the selected tracker",
                    "title": "Note text"
                }
            }
		},
        "template": {
            "type": "string",
            "description": "The request text and, if not existing, also the complaint text.",
            "title": "template"
        },
        "complaint-template": {
            "type": "string",
            "description": "The complaint text, if it differs from the request text.",
            "title": "complaint template"
        }
	},
	"additionalProperties": false,
	"required": [ "slug", "name", "template", "priority" ]
}
