{

    "dsb-email-placeholder": "E-Mail wird automatisch von der Postadresse abgeleitet",
    "no-email-found": "Keine E-Mail gefunden.",
    "title-for-what": "Wofür möchtest du eine Beschwerde generieren?",
    "type-app": "für eine Android-App",
    "type-webpage": "für eine Webseite",

    "title-already-sent": "Hast du bereits eine Aufforderung zum Entfernen von Trackern gesendet?",
    "complaint-info": "Eine Beschwerde solltest du nur an die Behörde senden, wenn du vier Wochen gewartet hast und sicher bist, dass die SDKs tatsächlich aktiv sind.",

    "option-request": "Bin am Anfang und möchte erstmal das Aufforderungsschreiben für den Betreiber generieren.",
    "option-complaint": "Schon vor vier Wochen geschehen! Ich möchte jetzt die Beschwerde für die Datenschutzbehörde generieren.",

    "title-insert-url": "URL der App im Playstore",
    "insert-url-default": "https://play.google.com/store/apps/details?id=",
    "insert-url-error-msg": "Bitte gebe eine gültige URL ein.",
    
    "appversion-title": "Version der App",
    "appversion-desc": "Findest du auf der Play-Store-Seite der App.",
    "appversion-error-msg": "Bitte gebe eine gültige App-Version ein.",

    "title-email-privacy-officer": "E-Mail des/der Datenschutzbeauftragten der App",
    "email-location": "Findest du auf der Play-Store-Seite der App unter \"Privacy Policy\".",

    "title-address-site-operator": "Postadresse des Betreibers",
    "address-note": "Ausschlaggebend für eine Beschwerde ist die Postanschrift des Betreibers.",
    "address-location": "Findet sich entweder direkt im Playstore oder im Impressum der dort verlinkten Website.",
    "address-error-msg": "Für diese Adresse konnte keine Datenschutzbehörde ermittelt werden, bitte überprüfe deine Angaben.",

    "check-is-bfdi": "Es handelt sich hierbei um eine Bundesbehörde, eine öffentliche Stelle des Bundes oder ein Telekommunikations- oder Postdienstunternehmen.",

    "title-tracker-found": "Welche Tracker hat die App laut Exodus-Privacy  oder Mobilsicher?",
    "exocud-privacy": "Exodus-Privacy jetzt öffnen",
    "mobilsicher": "Mobilsicher jetzt öffnen",
    "filter-tracker": "Tracker filtern...",
    "fix-selected-tracker": "Ausgewählte Tracker fixieren",

    "warning-configfromurl": "Die folgenden Tracker hattest du zuvor ausgewählt. Bitte prüfe nun, ob du sie jetzt noch in der App findest.",


    "title-time": "Ungefähre Zeit der letzten Prüfung",

    "title-consent": "Hast du aktiv deine Einwilligung zum Tracken gegeben?",
    "desc-consent": "Du bist sicher, dass du keine aktive Einwilligung gegeben hast, als du die App erstmals benutzt hast? Um das sicherzustellen, musst du die App (oder ihre Daten) löschen und neu installieren bzw. starten.",
    "consent-error-msg": "Dieses Feld ist erforderlich, um eine Beschwerde zu generieren.",
    "consent-options": [
        { "value": "nein", "label": "Habe sicher nicht eingewilligt." },
        {
            "value": "minimal",
            "label": "Um die App zu nutzen, musste ich einer unbedingt erforderlichen  Minimalauswahl zustimmen.",
            "checkedValue": "Insbesondere bei einer Beschwerde solltest du einen Screenshot deiner Auswahl hinzufügen, damit es keine Missverständnisse gibt."
        }
    ],
    "consent-buttons-title": "Optional: Ausgewählte Buttons",
    "consent-buttons-placeholder": "z.B. \"Optionen\"/\"Speichern\"",

    "person-title": "Fast fertig! Du kannst nun noch deinen Namen und Postadresse eintragen.",
    "person-desc": "Dein Name ist nicht unbedingt notwendig. Bei Beschwerden ist es aber empfohlen deinen Namen und deine Postadresse zu hinterlassen.",
    "person-placeholder": "Dein Name und evtl. Postadresse ...",

    "person-unencrypted-mail": "Die Behörde darf mich per unverschlüsselter Mail kontaktieren",
    "person-disclose-name": "Die Behörde darf meinen Namen gegenüber dem Beschwerdegegner offenlegen",

    "include-in-list-title": "App in Tracktor-Liste aufnehmen",
    "include-in-list-desc": "Zeige anderen, dass sich bereits jemand um diese App kümmert: Die App erscheint dann in unserer öffentlichen Liste",
    "include-in-list-label": "App in die Liste aufnehmen",


    "error-no-tracker-selected": "Es muss mindestens ein Tracker ausgewählt werden.",
    "show-all-tracker": "+ Alle {{count}} Tracker anzeigen",
    "show-common-tracker": "- Nur häufige Tracker anzeigen",

    "show-details": "Details einblenden",
    "hide-details": "Details ausblenden",

    "search-networktraffic": "Suchbegriff für die Netzwerkanalyse:",
    "custom-input-placeholder": "",
    "copy-url": "Tracker-URL kopieren",

    "optional": "Optional",
    "not-testet-error-msg": "Bei einer Beschwerde musst du selbst prüfen, ob die App wirklich trackt.",
    "connections-to-title": "(1/2) Verbindungen prüfen",
    "connections-to-desc": "Hast du geprüft, ob diese Tracker aktiv sind und Verbindungen zu den dazugehörigen Servern aufbauen? Das geht mit <a href=\"https://github.com/emanuele-f/PCAPdroid\">PCAPdroid</a>.",
    "connections-to-placeholder": "bitte exakte Adresse eingeben",
    "varies-by-region": "Variiert je nach Region z.B. ",
    "sending-id-title": "(2/2) Übertragung von IDs prüfen",
    "sending-id-desc": "Hast du die Datenverbindungen der App entschlüsselt und darin möglicherweise personenbezogene IDs gefunden? Das geht z.B. mit <a href=\"https://emanuele-f.github.io/PCAPdroid/tls_decryption\">PCAPdroid und mitmproxy</a>. ",
    "sending-id-example": "Zum Beispiel",
    "sending-id-placeholder": "Adressen zu der die App nachweislich eine ID sendet",

    "no-tracker-selected": "Es wurde noch kein Tracker ausgewählt.",

    "more-title": "Zusätzliche Informationen",
    "more-options": [
        {
            "value": "operatorHasConceded",
            "checkedLabel": "Bitte unbedingt die entsprechende Antwort des Betreibers an die Beschwerde anhängen.",
            "label": "Der Betreiber hat eingeräumt, dass die SDKs aktiv sind. Aber er hat sie nicht entfernt."
        }
    ],

    "generate-complaint": "Beschwerde generieren",
    "generate-request": "Aufforderung generieren",

    "complaint-subject": "Beschwerde wegen Trackingeinbettungen bei {{domain}}",
    "request-subject": "Datenschutzprobleme in der App {{domain}}",
    "with-deadline": "(mit Frist von vier Wochen)",


    "title-message": "Vorschau der Nachricht",

    "connection-to-text": "Ich konnte nachweislich Verbindungen an die IP / Host \"{{connectionIP}}\" feststellen, die zu \"{{trackerName}}\" gehört. Deshalb gehe ich davon aus, dass das SDK in Ihrer App aktiv ist.",

    "sending-id-request": "Ich konnte die Verbindungen an \"{{sending-ip}}\" durch Ihre App einsehen. Ihre App überträgt nachweislich meine personenbezogenen IDs an diesen Anbieter.",
    "sending-id-complaint": "Ich konnte die Verbindungen an \"{{sending-ip}}\" durch die App einsehen. Die App überträgt nachweislich Verhaltensdaten und pseudonyme IDs an diesen Anbieter.",


    "mail-to": "An",
    "mail-subject": "Betreff",
    "action-open-mail": "Nachricht in E-Mail-Programm öffnen",
    "action-copy": "Nachricht in die Zwischenablage kopieren",
    "action-reminder": "Erinnerung für Beschwerde in Kalender eintragen",
    "consent-warning": "Tracker sind bei gegebener Einwilligung meist rechtlich nicht zu beanstanden. Prüfe deine Angaben zur Einwilligung und entscheide, ob du die E-Mail so wirklich absenden willst.",

    "saved-url": "Zu dieser Aufforderung eine Beschwerde generieren.",
    "saved-url-hint": "Tipp: Rechtsklick > Lesezeichen erstellen, um die aktuellen Daten für die Beschwerde im Browser zu speichern.",

    "moreinfos-title": "Weiterführende Informationen",
    "responsible-dpo": "Für diese Website ist {{dsb}} zuständig.",
    "complaint-form": "Zum Online-Beschwerdeformular",

    "back-to-data-entry": "Zurück zur Dateneingabe",

    "reminder-title": "Beschwerde für {{domain}} ist fällig",
    "reminder-filename": "tracktor.it_{{domain}}",
    "reminder-desc": "Der Seitenbetreiber von {{domain}} hatte nun vier Wochen Zeit, die Tracker zu entfernen.Falls er dies nicht getan hat, ist es nun an der Zeit, eine Beschwerde zu erstellen und an die zuständige Datenschutzbehörde zu schicken."

}
