{
    "title": "Erfasste Webseiten und Apps",
    "desc": "Hier findest du eine Liste der bisher (öffentlich) erfassten Aufforderungen/Beschwerden.",

    "button-search": "Suchen",
    "search-placeholder": "Nach einer Webseite/App suchen...",

    "search-no-query": "Die Liste umfasst aktuell {{count}} (öffentliche) Webseiten/Apps.",
    "search-several-results": "Für \"{{query}}\" wurden {{count}} Einträge gefunden.",
    "search-one-result": "Für \"{{query}}\" wurde ein Eintrag gefunden.",
    "search-no-result": "Es wurde kein Eintrag gefunden.",

    "link-generate-now": "Jetzt eine Aufforderung/Beschwerde generieren!",

    "total-generated": "Insgesamt generiert",
    "various-websites": "verschiedene Webseiten",
    "various-apps": "verschiedene Apps"


}