{
    "slug": "adobe-experience-cloud-id-service",
    "name": "Adobe Experience Cloud Identitätsdienst",
    "priority": 40,
    "tracking-urls": ["dpm.demdex.net/id"],
    "template": "Adobe Experience Cloud Identitätsdienst:\nAufrufe an dpm.demdex.net/id gehören zu der umfassenden Marketing- und Analysedienstleistung \"Experience Cloud\" von Adobe. Zusätzlich zum domainspezifischen AMCV-Cookie in der Domain des Seitenbetreibers setzte dieser Dienst ein Cookie \"demdex\" unter der demdex.net-Domain. So können meine Seitenaufrufe auch domainübergreifend getrackt werden aber auch verschiedene Geräte zu einem Profil zusammengeknüpft werden (indem einer der teilnehmenden Seitenbetreiber etwa beim sogenannten \"Device Co-op\" eine eventuell von mir vorhandene Logininformation mit anderen Drittpartnern teilt). Die personenbeziehbare ID-Lösung, die mit diesem Cookie in meinem Browser durchgeführt wurde, bildet die Grundlage für verschiedene Trackingprodukte von Adobe wie etwa \"Analytics\" (Marktforschung) oder \"Audience Manager\" (Werbezielgruppen).\nhttps://docs.adobe.com/content/help/de-DE/id-service/using/intro/cookies.html"
}
