{
    "slug": "neory",
    "tracking-urls": ["ad-srv.net"],
    "name": "Neory Marketing Cloud (mit Cookie #_uid)",
    "priority": 0,
    "note": {
        "image": "/images/screenshots-tracker/uid_neory.png",
        "title": "Screenshot eines Neory-Cookies",
        "text": "Einbettungen von ad-srv.net sind ohne Einwilligung immer dann rechtswidrig, wenn ein Cookie geschrieben oder gelesen wird, das einen Namen nach dem Muster \"<accountkennung>_uid\" trägt. Es enthält eine eindeutige Benutzerkennung. Für die Beschwerde einen Beleg dieser Vorgänge anfügen, z.B. Screenshot oder HAR-Datei."
    },            
    "template": "Neory Marketing Cloud:\nMit der Neory Marketing Cloud kann ein Webseitenbetreiber (oder sein Dienstleister) Verhaltensdaten über seine Kunden sammeln und speichern und diese Daten für Marktforschung und Marketingzwecke nutzen. Möglich ist beispielsweise die individuelle Bewertung des Besuchers mit bis zu 30 Einzelfaktoren für das Retargeting, eine Zielgruppengenerierung auf Basis von Verhaltensdaten anderer Websites oder eine Auswertung für die Kontrolle des Werbeerfolgs (Conversion).\nhttps://www.neory.com/\nFür diese personalisierenden Dienste wird ein eindeutiges Cookie mit dem Namen <accountkennung>_uid gesetzt, das eine Nutzerkennung enthält. Neory hat nach eigenen Angaben 150 Millionen solcher Nutzerprofile gesammelt.\nhttps://www.neory.com/privacy-policy"
}
